<?xml version="1.0" encoding="UTF-8"?>
<svg xmlns="http://www.w3.org/2000/svg" xmlns:xlink="http://www.w3.org/1999/xlink" width="50px" height="50px" viewBox="0 0 50 50" version="1.1">
<g id="surface1">
<path style=" stroke:none;fill-rule:nonzero;fill:rgb(0%,37.647059%,64.313725%);fill-opacity:1;" d="M 36.296875 23.242188 L 19.109375 12.792969 C 17.570312 11.933594 15.625 13.039062 15.625 14.84375 L 15.625 35.15625 C 15.625 36.953125 17.558594 38.066406 19.109375 37.207031 L 36.296875 27.34375 C 37.898438 26.453125 37.898438 24.140625 36.296875 23.242188 Z M 49.21875 25 C 49.21875 11.621094 38.378906 0.78125 25 0.78125 C 11.621094 0.78125 0.78125 11.621094 0.78125 25 C 0.78125 38.378906 11.621094 49.21875 25 49.21875 C 38.378906 49.21875 49.21875 38.378906 49.21875 25 Z M 5.46875 25 C 5.46875 14.210938 14.210938 5.46875 25 5.46875 C 35.789062 5.46875 44.53125 14.210938 44.53125 25 C 44.53125 35.789062 35.789062 44.53125 25 44.53125 C 14.210938 44.53125 5.46875 35.789062 5.46875 25 Z M 5.46875 25 "/>
</g>
</svg>
